%YAML 1.1
%TAG !u! tag:unity3d.com,2011:
--- !u!114 &11400000
MonoBehaviour:
  m_ObjectHideFlags: 0
  m_CorrespondingSourceObject: {fileID: 0}
  m_PrefabInstance: {fileID: 0}
  m_PrefabAsset: {fileID: 0}
  m_GameObject: {fileID: 0}
  m_Enabled: 1
  m_EditorHideFlags: 0
  m_Script: {fileID: 11500000, guid: 6c22f5f38799982418df72ec0999826a, type: 3}
  m_Name: Horizontal
  m_EditorClassIdentifier: 
  targetString: Horizontal
  _value: 0
  variable: {fileID: 11400000, guid: 8d992bd6281e39f43a998e3e515ca943, type: 2}
