%YAML 1.1
%TAG !u! tag:unity3d.com,2011:
--- !u!114 &11400000
MonoBehaviour:
  m_ObjectHideFlags: 0
  m_CorrespondingSourceObject: {fileID: 0}
  m_PrefabInstance: {fileID: 0}
  m_PrefabAsset: {fileID: 0}
  m_GameObject: {fileID: 0}
  m_Enabled: 1
  m_EditorHideFlags: 0
  m_Script: {fileID: 11500000, guid: e09f12a9b8fb5e44eb81fa499afbecc4, type: 3}
  m_Name: Jumping
  m_EditorClassIdentifier: 
  onFixed: []
  onUpdate:
  - {fileID: 11400000, guid: 401a29d5f9adc4645bb5e29b14bea9a7, type: 2}
  onEnter:
  - {fileID: 11400000, guid: 78627af8e42db144392be9fceb95c4ca, type: 2}
  onExit:
  - {fileID: 11400000, guid: 15b44a735ac703543ab202c34aef60c6, type: 2}
  onUpdateVelocity:
  - {fileID: 11400000, guid: 54cb344dc51f8a948b657088dadbd1d9, type: 2}
  - {fileID: 11400000, guid: 99a49cd1b542b354fad7ffc65b82fa1d, type: 2}
  - {fileID: 11400000, guid: 78bec2ba5211aac44babef05ebcf333b, type: 2}
  onUpdateRotation:
  - {fileID: 11400000, guid: 3a88a96d09e040d46ac37907d3268ef1, type: 2}
  onAfterCharacterUpdate:
  - {fileID: 11400000, guid: 241b9bb6b2d5b7541aa9b17d7cc8c422, type: 2}
  idCount: 5
  transitions:
  - id: 3
    condition: {fileID: 11400000, guid: 0d285d0f4bb8d2b46bf6824b3e0bedc6, type: 2}
    targetState: {fileID: 11400000, guid: 081cb085b69f6a742a330c9962415496, type: 2}
    disable: 0
  - id: 4
    condition: {fileID: 11400000, guid: 5e0034a4c5118114aa6bc73a30d975bf, type: 2}
    targetState: {fileID: 11400000, guid: 99c7115a233e1ec449ce8049d17c8180, type: 2}
    disable: 0
